^C:\PROJECTS\ZONE\ZONE\DEBUG\BACKGROUND.OBJ|C:\PROJECTS\ZONE\ZONE\DEBUG\CURSORBASE.OBJ|C:\PROJECTS\ZONE\ZONE\DEBUG\CURSORS.OBJ|C:\PROJECTS\ZONE\ZONE\DEBUG\DRAWABLES.OBJ|C:\PROJECTS\ZONE\ZONE\DEBUG\DYNAMICBACKGROUND.OBJ|C:\PROJECTS\ZONE\ZONE\DEBUG\HAMMERTAIL.OBJ|C:\PROJECTS\ZONE\ZONE\DEBUG\INGAMEMENU.OBJ|C:\PROJECTS\ZONE\ZONE\DEBUG\MAIN.OBJ|C:\PROJECTS\ZONE\ZONE\DEBUG\MAINMENU.OBJ|C:\PROJECTS\ZONE\ZONE\DEBUG\MENU.OBJ|C:\PROJECTS\ZONE\ZONE\DEBUG\MENUBUTTONS.OBJ|C:\PROJECTS\ZONE\ZONE\DEBUG\SCENE.OBJ|C:\PROJECTS\ZONE\ZONE\DEBUG\SHIP.OBJ|C:\PROJECTS\ZONE\ZONE\DEBUG\VEC2D.OBJ
/ERRORREPORT:PROMPT /OUT:"C:\Projects\Zone\Debug\Zone.exe" /NOLOGO SDL2.lib SDL2main.lib SDL2_image.lib kernel32.lib user32.lib gdi32.lib winspool.lib comdlg32.lib advapi32.lib shell32.lib ole32.lib oleaut32.lib uuid.lib odbc32.lib odbccp32.lib /MANIFEST /ManifestFile:"Debug\Zone.exe.intermediate.manifest" /MANIFESTUAC:"level='asInvoker' uiAccess='false'" /DEBUG /PDB:"C:\Projects\Zone\Debug\Zone.pdb" /SUBSYSTEM:WINDOWS /TLBID:1 /DYNAMICBASE /NXCOMPAT /IMPLIB:"C:\Projects\Zone\Debug\Zone.lib" /MACHINE:X86 Debug\Background.obj
Debug\CursorBase.obj
Debug\Drawables.obj
Debug\DynamicBackground.obj
Debug\Hammertail.obj
Debug\IngameMenu.obj
Debug\main.obj
Debug\MainMenu.obj
Debug\Menu.obj
Debug\MenuButtons.obj
Debug\Scene.obj
Debug\Cursors.obj
Debug\Ship.obj
Debug\Vec2D.obj
