^C:\PROJECTS\ZONE\ZONE\DEBUG\BACKGROUND.OBJ|C:\PROJECTS\ZONE\ZONE\DEBUG\CURSORBASE.OBJ|C:\PROJECTS\ZONE\ZONE\DEBUG\CURSORS.OBJ|C:\PROJECTS\ZONE\ZONE\DEBUG\DRAWABLES.OBJ|C:\PROJECTS\ZONE\ZONE\DEBUG\DYNAMICBACKGROUND.OBJ|C:\PROJECTS\ZONE\ZONE\DEBUG\HAMMERTAIL.OBJ|C:\PROJECTS\ZONE\ZONE\DEBUG\INGAMEMENU.OBJ|C:\PROJECTS\ZONE\ZONE\DEBUG\MAIN.OBJ|C:\PROJECTS\ZONE\ZONE\DEBUG\MAINMENU.OBJ|C:\PROJECTS\ZONE\ZONE\DEBUG\MENU.OBJ|C:\PROJECTS\ZONE\ZONE\DEBUG\MENUBUTTONS.OBJ|C:\PROJECTS\ZONE\ZONE\DEBUG\SCENE.OBJ|C:\PROJECTS\ZONE\ZONE\DEBUG\SHIP.OBJ|C:\PROJECTS\ZONE\ZONE\DEBUG\VEC2D.OBJ
C:\PROJECTS\ZONE\DEBUG\ZONE.ILK
C:\PROJECTS\ZONE\DEBUG\ZONE.EXE
C:\PROJECTS\ZONE\ZONE\DEBUG\ZONE.EXE.INTERMEDIATE.MANIFEST
C:\PROJECTS\ZONE\DEBUG\ZONE.PDB
